Lesson 9: ggplot part 2
…
Remember, this dataset shows cumulate counts, so let’s grab the
counts from the most recent date included in the dataset 2023-03-09.
We’ll also remove rows with missing data for variables we need (this is
typically not necessary as those lines will automatically be excluded
from plots, but we do it here because some of those rows have extreme
values for other variables)

# create a "total to date" subset of the data
vacc_ttd <- vacc |> 
  filter(date == max(date), !is.na(people_at_least_one_dose), !is.na(population))

# Let's look at our new tibble so make sure it makes sense
vacc_ttd

## # A tibble: 191 × 15
##    date       country_region      continent_name continent_code combined_key    
##    <date>     <chr>               <chr>          <chr>          <chr>           
##  1 2023-03-09 Afghanistan         Asia           AS             Afghanistan     
##  2 2023-03-09 Albania             Europe         EU             Albania         
##  3 2023-03-09 Algeria             Africa         AF             Algeria         
##  4 2023-03-09 Andorra             Europe         EU             Andorra         
##  5 2023-03-09 Angola              Africa         AF             Angola          
##  6 2023-03-09 Antigua and Barbuda North America  <NA>           Antigua and Bar…
##  7 2023-03-09 Argentina           South America  SA             Argentina       
##  8 2023-03-09 Armenia             Asia           AS             Armenia         
##  9 2023-03-09 Australia           Oceania        OC             Australia       
## 10 2023-03-09 Austria             Europe         EU             Austria         
## # ℹ 181 more rows
## # ℹ 10 more variables: doses_admin <dbl>, people_at_least_one_dose <dbl>,
## #   population <dbl>, uid <dbl>, iso2 <chr>, iso3 <chr>, code3 <dbl>,
## #   fips <lgl>, lat <dbl>, long <dbl>
…
