Lesson 10: Tidy Data
…
## 
## ── Column specification ────────────────────────────────────────────────────────
## cols(
##   date = col_date(format = ""),
##   province = col_character(),
##   country = col_character(),
##   lat = col_double(),
##   long = col_double(),
##   type = col_character(),
##   cases = col_double()
## )

coronavirus

## # A tibble: 356,694 x 7
##    date       province               country            lat   long type    cases
##    <date>     <chr>                  <chr>            <dbl>  <dbl> <chr>   <dbl>
##  1 2020-01-22 <NA>                   Afghanistan       33.9  67.7  confir…     0
##  2 2020-01-22 <NA>                   Albania           41.2  20.2  confir…     0
##  3 2020-01-22 <NA>                   Algeria           28.0   1.66 confir…     0
##  4 2020-01-22 <NA>                   Andorra           42.5   1.52 confir…     0
##  5 2020-01-22 <NA>                   Angola           -11.2  17.9  confir…     0
##  6 2020-01-22 <NA>                   Antigua and Bar…  17.1 -61.8  confir…     0
##  7 2020-01-22 <NA>                   Argentina        -38.4 -63.6  confir…     0
##  8 2020-01-22 <NA>                   Armenia           40.1  45.0  confir…     0
##  9 2020-01-22 Australian Capital Te… Australia        -35.5 149.   confir…     0
## 10 2020-01-22 New South Wales        Australia        -33.9 151.   confir…     0
## # … with 356,684 more rows
…
