Lesson 14: Wrap-up of relational data, then on to iteration with for loops and conditional execution with if statements
…
We can see that this dataset used camelCase (first word lowercase and
capitalize all following words) for its column names. I always use
snake_case (replace spaces with underscores), and it’s going to look
messy to have this inconsistent way of writing variable names. So I’m
going to go ahead and clean these names up before I start working with
the data. I can do this manually with the rename() or
colnames() functions, e.g.

gapminder %>% 
  rename("life_exp" = lifeExp, "gdp_per_cap" = gdpPercap)

## # A tibble: 1,704 × 6
##    country     continent  year life_exp      pop gdp_per_cap
##    <fct>       <fct>     <int>    <dbl>    <int>       <dbl>
##  1 Afghanistan Asia       1952     28.8  8425333        779.
##  2 Afghanistan Asia       1957     30.3  9240934        821.
##  3 Afghanistan Asia       1962     32.0 10267083        853.
##  4 Afghanistan Asia       1967     34.0 11537966        836.
##  5 Afghanistan Asia       1972     36.1 13079460        740.
##  6 Afghanistan Asia       1977     38.4 14880372        786.
##  7 Afghanistan Asia       1982     39.9 12881816        978.
##  8 Afghanistan Asia       1987     40.8 13867957        852.
##  9 Afghanistan Asia       1992     41.7 16317921        649.
## 10 Afghanistan Asia       1997     41.8 22227415        635.
## # … with 1,694 more rows
…
Now add the infant mortality and fertility from the
gap_dslabs_caps to our original `gapminder
data.

Click here for a solution

## When variable names are identical

# Natural join
gapminder %>% 
  left_join(gap_dslabs)

## Joining, by = c("country", "year")

## # A tibble: 1,704 × 8
##    country     continent  year life_exp      pop gdp_per_cap infant_mo…¹ ferti…²
##    <chr>       <fct>     <dbl>    <dbl>    <int>       <dbl>       <dbl>   <dbl>
##  1 Afghanistan Asia       1952     28.8  8425333        779.          NA      NA
##  2 Afghanistan Asia       1957     30.3  9240934        821.          NA      NA
##  3 Afghanistan Asia       1962     32.0 10267083        853.          NA      NA
##  4 Afghanistan Asia       1967     34.0 11537966        836.          NA      NA
##  5 Afghanistan Asia       1972     36.1 13079460        740.          NA      NA
##  6 Afghanistan Asia       1977     38.4 14880372        786.          NA      NA
##  7 Afghanistan Asia       1982     39.9 12881816        978.          NA      NA
##  8 Afghanistan Asia       1987     40.8 13867957        852.          NA      NA
##  9 Afghanistan Asia       1992     41.7 16317921        649.          NA      NA
## 10 Afghanistan Asia       1997     41.8 22227415        635.          NA      NA
## # … with 1,694 more rows, and abbreviated variable names ¹​infant_mortality,
## #   ²​fertility

# Specifying the variables to join by (useful if some variables mean different things in the two tables you're joining)
gapminder %>% 
  left_join(gap_dslabs, by = c("country", "year"))

## # A tibble: 1,704 × 8
##    country     continent  year life_exp      pop gdp_per_cap infant_mo…¹ ferti…²
##    <chr>       <fct>     <dbl>    <dbl>    <int>       <dbl>       <dbl>   <dbl>
##  1 Afghanistan Asia       1952     28.8  8425333        779.          NA      NA
##  2 Afghanistan Asia       1957     30.3  9240934        821.          NA      NA
##  3 Afghanistan Asia       1962     32.0 10267083        853.          NA      NA
##  4 Afghanistan Asia       1967     34.0 11537966        836.          NA      NA
##  5 Afghanistan Asia       1972     36.1 13079460        740.          NA      NA
##  6 Afghanistan Asia       1977     38.4 14880372        786.          NA      NA
##  7 Afghanistan Asia       1982     39.9 12881816        978.          NA      NA
##  8 Afghanistan Asia       1987     40.8 13867957        852.          NA      NA
##  9 Afghanistan Asia       1992     41.7 16317921        649.          NA      NA
## 10 Afghanistan Asia       1997     41.8 22227415        635.          NA      NA
## # … with 1,694 more rows, and abbreviated variable names ¹​infant_mortality,
## #   ²​fertility

# When variable names are not identical
gapminder %>% 
  left_join(gap_dslabs_caps, by = c("country" = "Country", "year" = "Year"))

## # A tibble: 1,704 × 8
##    country     continent  year life_exp      pop gdp_per_cap infant_mo…¹ ferti…²
##    <chr>       <fct>     <dbl>    <dbl>    <int>       <dbl>       <dbl>   <dbl>
##  1 Afghanistan Asia       1952     28.8  8425333        779.          NA      NA
##  2 Afghanistan Asia       1957     30.3  9240934        821.          NA      NA
##  3 Afghanistan Asia       1962     32.0 10267083        853.          NA      NA
##  4 Afghanistan Asia       1967     34.0 11537966        836.          NA      NA
##  5 Afghanistan Asia       1972     36.1 13079460        740.          NA      NA
##  6 Afghanistan Asia       1977     38.4 14880372        786.          NA      NA
##  7 Afghanistan Asia       1982     39.9 12881816        978.          NA      NA
##  8 Afghanistan Asia       1987     40.8 13867957        852.          NA      NA
##  9 Afghanistan Asia       1992     41.7 16317921        649.          NA      NA
## 10 Afghanistan Asia       1997     41.8 22227415        635.          NA      NA
## # … with 1,694 more rows, and abbreviated variable names ¹​infant_mortality,
## #   ²​fertility
…
# What records in gap_dslabs are not matched in gapminder
gap_dslabs %>% 
  anti_join(gapminder,  by = "country")  %>% 
  count(country)

## # A tibble: 52 × 2
##    country                 n
##    <chr>               <int>
##  1 Antigua and Barbuda    10
##  2 Armenia                10
##  3 Aruba                  10
##  4 Azerbaijan             10
##  5 Bahamas                10
##  6 Barbados               10
##  7 Belarus                10
##  8 Belize                 10
##  9 Bhutan                 10
## 10 Brunei                 10
## # … with 42 more rows
…
