…
``` r
## When variable names are identical

# Natural join
gapminder |> 
  left_join(gap_dslabs)
```

```
## Joining with `by = join_by(country, year)`
```

```
## # A tibble: 1,704 × 8
##    country     continent  year life_exp      pop gdp_per_cap infant_mortality
##    <chr>       <fct>     <dbl>    <dbl>    <int>       <dbl>            <dbl>
##  1 Afghanistan Asia       1952     28.8  8425333        779.               NA
##  2 Afghanistan Asia       1957     30.3  9240934        821.               NA
##  3 Afghanistan Asia       1962     32.0 10267083        853.               NA
##  4 Afghanistan Asia       1967     34.0 11537966        836.               NA
##  5 Afghanistan Asia       1972     36.1 13079460        740.               NA
##  6 Afghanistan Asia       1977     38.4 14880372        786.               NA
##  7 Afghanistan Asia       1982     39.9 12881816        978.               NA
##  8 Afghanistan Asia       1987     40.8 13867957        852.               NA
##  9 Afghanistan Asia       1992     41.7 16317921        649.               NA
## 10 Afghanistan Asia       1997     41.8 22227415        635.               NA
## # ℹ 1,694 more rows
## # ℹ 1 more variable: fertility <dbl>
```

``` r
# Specifying the variables to join by (useful if some variables mean different things in the two tables you're joining)
gapminder |> 
  left_join(gap_dslabs, join_by(country, year))
```

```
## # A tibble: 1,704 × 8
##    country     continent  year life_exp      pop gdp_per_cap infant_mortality
##    <chr>       <fct>     <dbl>    <dbl>    <int>       <dbl>            <dbl>
##  1 Afghanistan Asia       1952     28.8  8425333        779.               NA
##  2 Afghanistan Asia       1957     30.3  9240934        821.               NA
##  3 Afghanistan Asia       1962     32.0 10267083        853.               NA
##  4 Afghanistan Asia       1967     34.0 11537966        836.               NA
##  5 Afghanistan Asia       1972     36.1 13079460        740.               NA
##  6 Afghanistan Asia       1977     38.4 14880372        786.               NA
##  7 Afghanistan Asia       1982     39.9 12881816        978.               NA
##  8 Afghanistan Asia       1987     40.8 13867957        852.               NA
##  9 Afghanistan Asia       1992     41.7 16317921        649.               NA
## 10 Afghanistan Asia       1997     41.8 22227415        635.               NA
## # ℹ 1,694 more rows
## # ℹ 1 more variable: fertility <dbl>
```

``` r
# When variable names are not identical
gapminder |> 
  left_join(gap_dslabs_caps, join_by(country == Country, year == Year))
```

```
## # A tibble: 1,704 × 8
##    country     continent  year life_exp      pop gdp_per_cap infant_mortality
##    <chr>       <fct>     <dbl>    <dbl>    <int>       <dbl>            <dbl>
##  1 Afghanistan Asia       1952     28.8  8425333        779.               NA
##  2 Afghanistan Asia       1957     30.3  9240934        821.               NA
##  3 Afghanistan Asia       1962     32.0 10267083        853.               NA
##  4 Afghanistan Asia       1967     34.0 11537966        836.               NA
##  5 Afghanistan Asia       1972     36.1 13079460        740.               NA
##  6 Afghanistan Asia       1977     38.4 14880372        786.               NA
##  7 Afghanistan Asia       1982     39.9 12881816        978.               NA
##  8 Afghanistan Asia       1987     40.8 13867957        852.               NA
##  9 Afghanistan Asia       1992     41.7 16317921        649.               NA
## 10 Afghanistan Asia       1997     41.8 22227415        635.               NA
## # ℹ 1,694 more rows
## # ℹ 1 more variable: fertility <dbl>
```
…
``` r
# What records in gap_dslabs are not matched in gapminder
gap_dslabs |> 
  anti_join(gapminder,  join_by(country))  |> 
  distinct(country)
```

```
## # A tibble: 52 × 1
##    country            
##    <chr>              
##  1 Antigua and Barbuda
##  2 Armenia            
##  3 Aruba              
##  4 Azerbaijan         
##  5 Bahamas            
##  6 Barbados           
##  7 Belarus            
##  8 Belize             
##  9 Bhutan             
## 10 Brunei             
## # ℹ 42 more rows
```
…
